\relax 
\@writefile{toc}{\contentsline {section}{\numberline {I}Introduction}{1}}
\@writefile{toc}{\contentsline {section}{\numberline {II}Background}{1}}
\@writefile{toc}{\contentsline {subsection}{\numberline {\unhbox \voidb@x \hbox {II-A}}The Internet of Things}{1}}
\@writefile{toc}{\contentsline {subsection}{\numberline {\unhbox \voidb@x \hbox {II-B}}Denial of Service}{1}}
\@writefile{toc}{\contentsline {section}{\numberline {III}The Problem and Solution}{1}}
\@writefile{toc}{\contentsline {subsection}{\numberline {\unhbox \voidb@x \hbox {III-A}}Problem}{1}}
\@writefile{toc}{\contentsline {subsection}{\numberline {\unhbox \voidb@x \hbox {III-B}}Solution}{1}}
\@writefile{toc}{\contentsline {section}{\numberline {IV}Supporting Research}{1}}
\@writefile{toc}{\contentsline {subsection}{\numberline {\unhbox \voidb@x \hbox {IV-A}}Bayesian Classification of DDoS attacks}{1}}
\@writefile{toc}{\contentsline {subsection}{\numberline {\unhbox \voidb@x \hbox {IV-B}}Proportional packet rate assumption}{1}}
\bibcite{b1}{1}
\bibcite{b2}{2}
\bibcite{b3}{3}
\bibcite{b4}{4}
\bibcite{b5}{5}
\bibcite{b6}{6}
\bibcite{b7}{7}
\newlabel{eq}{{\unhbox \voidb@x \hbox {IV-B}}{2}}
\@writefile{toc}{\contentsline {subsection}{\numberline {\unhbox \voidb@x \hbox {IV-C}}System Usability}{2}}
\@writefile{toc}{\contentsline {subsection}{\numberline {\unhbox \voidb@x \hbox {IV-D}}Conclusions from research}{2}}
\@writefile{toc}{\contentsline {section}{References}{2}}
