# Fdb version 3
["pdflatex"] 1533613558 "c:/Users/Jake/Documents/thesis/Conference paper/Conference-LaTeX-template_7-9-18/conference_041818.tex" "conference_041818.pdf" "conference_041818" 1533613559
  "IEEEtran.cls" 1440604124 288304 5b2e4fa15b0f7eabb840ebf67df4c0f7 ""
  "c:/Users/Jake/Documents/thesis/Conference paper/Conference-LaTeX-template_7-9-18/conference_041818.tex" 1533613557 9097 205b2651f2aad13a1dc0114090fd8a2a ""
  "c:/texlive/2018/texmf-dist/fonts/enc/dvips/base/8r.enc" 1533175232 4850 80dc9bab7f31fb78a000ccfed0e27cab ""
  "c:/texlive/2018/texmf-dist/fonts/map/fontname/texfonts.map" 1533175499 3332 103109f5612ad95229751940c61aada0 ""
  "c:/texlive/2018/texmf-dist/fonts/tfm/adobe/times/ptmb7t.tfm" 1533177428 2172 fd0c924230362ff848a33632ed45dc23 ""
  "c:/texlive/2018/texmf-dist/fonts/tfm/adobe/times/ptmb8r.tfm" 1533177428 4524 6bce29db5bc272ba5f332261583fee9c ""
  "c:/texlive/2018/texmf-dist/fonts/tfm/adobe/times/ptmbi7t.tfm" 1533177428 2228 e564491c42a4540b5ebb710a75ff306c ""
  "c:/texlive/2018/texmf-dist/fonts/tfm/adobe/times/ptmbi8r.tfm" 1533177428 4480 10409ed8bab5aea9ec9a78028b763919 ""
  "c:/texlive/2018/texmf-dist/fonts/tfm/adobe/times/ptmr7t.tfm" 1533177428 2124 2601a75482e9426d33db523edf23570a ""
  "c:/texlive/2018/texmf-dist/fonts/tfm/adobe/times/ptmr8r.tfm" 1533177428 4408 25b74d011a4c66b7f212c0cc3c90061b ""
  "c:/texlive/2018/texmf-dist/fonts/tfm/adobe/times/ptmrc7t.tfm" 1533177428 2680 312a2d12b1f1df8ee0212e7ba1962402 ""
  "c:/texlive/2018/texmf-dist/fonts/tfm/adobe/times/ptmri7t.tfm" 1533177428 2288 f478fc8fed18759effb59f3dad7f3084 ""
  "c:/texlive/2018/texmf-dist/fonts/tfm/adobe/times/ptmri8r.tfm" 1533177428 4640 532ca3305aad10cc01d769f3f91f1029 ""
  "c:/texlive/2018/texmf-dist/fonts/tfm/public/amsfonts/cmextra/cmex7.tfm" 1533174456 1004 54797486969f23fa377b128694d548df ""
  "c:/texlive/2018/texmf-dist/fonts/tfm/public/amsfonts/cmextra/cmex8.tfm" 1533174456 988 bdf658c3bfc2d96d3c8b02cfc1c94c20 ""
  "c:/texlive/2018/texmf-dist/fonts/tfm/public/amsfonts/symbols/msam10.tfm" 1533174456 916 f87d7c45f9c908e672703b83b72241a3 ""
  "c:/texlive/2018/texmf-dist/fonts/tfm/public/amsfonts/symbols/msam5.tfm" 1533174456 924 9904cf1d39e9767e7a3622f2a125a565 ""
  "c:/texlive/2018/texmf-dist/fonts/tfm/public/amsfonts/symbols/msam7.tfm" 1533174456 928 2dc8d444221b7a635bb58038579b861a ""
  "c:/texlive/2018/texmf-dist/fonts/tfm/public/amsfonts/symbols/msbm10.tfm" 1533174456 908 2921f8a10601f252058503cc6570e581 ""
  "c:/texlive/2018/texmf-dist/fonts/tfm/public/amsfonts/symbols/msbm5.tfm" 1533174456 940 75ac932a52f80982a9f8ea75d03a34cf ""
  "c:/texlive/2018/texmf-dist/fonts/tfm/public/amsfonts/symbols/msbm7.tfm" 1533174456 940 228d6584342e91276bf566bcf9716b83 ""
  "c:/texlive/2018/texmf-dist/fonts/tfm/public/cm/cmex10.tfm" 1533174875 992 662f679a0b3d2d53c1b94050fdaa3f50 ""
  "c:/texlive/2018/texmf-dist/fonts/tfm/public/cm/cmmi10.tfm" 1533174875 1528 abec98dbc43e172678c11b3b9031252a ""
  "c:/texlive/2018/texmf-dist/fonts/tfm/public/cm/cmmi6.tfm" 1533174875 1512 f21f83efb36853c0b70002322c1ab3ad ""
  "c:/texlive/2018/texmf-dist/fonts/tfm/public/cm/cmmi8.tfm" 1533174875 1520 eccf95517727cb11801f4f1aee3a21b4 ""
  "c:/texlive/2018/texmf-dist/fonts/tfm/public/cm/cmr10.tfm" 1533174875 1296 45809c5a464d5f32c8f98ba97c1bb47f ""
  "c:/texlive/2018/texmf-dist/fonts/tfm/public/cm/cmr6.tfm" 1533174875 1300 b62933e007d01cfd073f79b963c01526 ""
  "c:/texlive/2018/texmf-dist/fonts/tfm/public/cm/cmr8.tfm" 1533174875 1292 21c1c5bfeaebccffdb478fd231a0997d ""
  "c:/texlive/2018/texmf-dist/fonts/tfm/public/cm/cmsy10.tfm" 1533174875 1124 6c73e740cf17375f03eec0ee63599741 ""
  "c:/texlive/2018/texmf-dist/fonts/tfm/public/cm/cmsy6.tfm" 1533174875 1116 933a60c408fc0a863a92debe84b2d294 ""
  "c:/texlive/2018/texmf-dist/fonts/tfm/public/cm/cmsy8.tfm" 1533174875 1120 8b7d695260f3cff42e636090a8002094 ""
  "c:/texlive/2018/texmf-dist/fonts/type1/public/amsfonts/cm/cmmi10.pfb" 1533174457 36299 5f9df58c2139e7edcf37c8fca4bd384d ""
  "c:/texlive/2018/texmf-dist/fonts/type1/public/amsfonts/cm/cmr10.pfb" 1533174457 35752 024fb6c41858982481f6968b5fc26508 ""
  "c:/texlive/2018/texmf-dist/fonts/type1/urw/times/utmb8a.pfb" 1533177428 44729 fea0975e20ec51c992338362f05f1146 ""
  "c:/texlive/2018/texmf-dist/fonts/type1/urw/times/utmbi8a.pfb" 1533177428 44656 0cbca70e0534538582128f6b54593cca ""
  "c:/texlive/2018/texmf-dist/fonts/type1/urw/times/utmr8a.pfb" 1533177428 46026 687528a208fbfc1f00832bb96cccebbb ""
  "c:/texlive/2018/texmf-dist/fonts/type1/urw/times/utmri8a.pfb" 1533177428 45458 504e2b06fa82109d168c7a0afb09e145 ""
  "c:/texlive/2018/texmf-dist/fonts/vf/adobe/times/ptmb7t.vf" 1533177428 1372 788387fea833ef5963f4c5bffe33eb89 ""
  "c:/texlive/2018/texmf-dist/fonts/vf/adobe/times/ptmbi7t.vf" 1533177428 1384 6ac0f8b839230f5d9389287365b243c0 ""
  "c:/texlive/2018/texmf-dist/fonts/vf/adobe/times/ptmr7t.vf" 1533177428 1380 0ea3a3370054be6da6acd929ec569f06 ""
  "c:/texlive/2018/texmf-dist/fonts/vf/adobe/times/ptmrc7t.vf" 1533177428 1948 7330aeef3af211edff3b35fb2c12a0fd ""
  "c:/texlive/2018/texmf-dist/fonts/vf/adobe/times/ptmri7t.vf" 1533177428 1384 a9d8adaf491ce34e5fba99dc7bbe5f39 ""
  "c:/texlive/2018/texmf-dist/tex/context/base/mkii/supp-pdf.mkii" 1533176361 71627 94eb9990bed73c364d7f53f960cc8c5b ""
  "c:/texlive/2018/texmf-dist/tex/generic/oberdiek/etexcmds.sty" 1533176515 7612 729a8cc22a1ee0029997c7f74717ae05 ""
  "c:/texlive/2018/texmf-dist/tex/generic/oberdiek/ifluatex.sty" 1533175758 7324 2310d1247db0114eb4726807c8837a0e ""
  "c:/texlive/2018/texmf-dist/tex/generic/oberdiek/ifpdf.sty" 1533176515 1251 d170e11a3246c3392bc7f59595af42cb ""
  "c:/texlive/2018/texmf-dist/tex/generic/oberdiek/infwarerr.sty" 1533176515 8253 473e0e41f9adadb1977e8631b8f72ea6 ""
  "c:/texlive/2018/texmf-dist/tex/generic/oberdiek/kvdefinekeys.sty" 1533176515 5152 b67a3a964ad9851e095110c854a1d461 ""
  "c:/texlive/2018/texmf-dist/tex/generic/oberdiek/kvsetkeys.sty" 1533176515 14040 ac8866aac45982ac84021584b0abb252 ""
  "c:/texlive/2018/texmf-dist/tex/generic/oberdiek/ltxcmds.sty" 1533176515 18425 5b3c0c59d76fac78978b5558e83c1f36 ""
  "c:/texlive/2018/texmf-dist/tex/generic/oberdiek/pdftexcmds.sty" 1533176515 20418 ca44694be1c8df491925faa194fe6edf ""
  "c:/texlive/2018/texmf-dist/tex/latex/algorithms/algorithmic.sty" 1533174443 9318 793e9d5a71e74e730d97f6bf5d7e2bca ""
  "c:/texlive/2018/texmf-dist/tex/latex/amsfonts/amsfonts.sty" 1533174457 5949 3f3fd50a8cc94c3d4cbf4fc66cd3df1c ""
  "c:/texlive/2018/texmf-dist/tex/latex/amsfonts/amssymb.sty" 1533174457 13829 94730e64147574077f8ecfea9bb69af4 ""
  "c:/texlive/2018/texmf-dist/tex/latex/amsfonts/umsa.fd" 1533174457 961 6518c6525a34feb5e8250ffa91731cff ""
  "c:/texlive/2018/texmf-dist/tex/latex/amsfonts/umsb.fd" 1533174457 961 d02606146ba5601b5645f987c92e6193 ""
  "c:/texlive/2018/texmf-dist/tex/latex/amsmath/amsbsy.sty" 1533174459 2211 ca7ce284ab93c8eecdc6029dc5ccbd73 ""
  "c:/texlive/2018/texmf-dist/tex/latex/amsmath/amsgen.sty" 1533174459 4161 7f6eb9092061a11f87d08ed13515b48d ""
  "c:/texlive/2018/texmf-dist/tex/latex/amsmath/amsmath.sty" 1533174459 84354 7292177bb735c466b78634ee4efd537e ""
  "c:/texlive/2018/texmf-dist/tex/latex/amsmath/amsopn.sty" 1533174459 4116 32e6abd27229755a83a8b7f18e583890 ""
  "c:/texlive/2018/texmf-dist/tex/latex/amsmath/amstext.sty" 1533174459 2432 8ff93b1137020e8f21930562a874ae66 ""
  "c:/texlive/2018/texmf-dist/tex/latex/base/ifthen.sty" 1533175947 5161 c004ea5a189d4bdcf42e86754ad75a58 ""
  "c:/texlive/2018/texmf-dist/tex/latex/base/textcomp.sty" 1533175947 16156 c88fab7ab9716ccedc3dc1fa0f1f22da ""
  "c:/texlive/2018/texmf-dist/tex/latex/base/ts1cmr.fd" 1533175947 2433 cdefd2509a12ba58001f2024f63aae9a ""
  "c:/texlive/2018/texmf-dist/tex/latex/base/ts1enc.def" 1533175947 7769 97b639552068544f7c98d557abb19f41 ""
  "c:/texlive/2018/texmf-dist/tex/latex/base/ts1enc.dfu" 1533175947 4973 a0ebe45f171b33c2df4e84416140511f ""
  "c:/texlive/2018/texmf-dist/tex/latex/cite/cite.sty" 1533174857 26218 19edeff8cdc2bcb704e8051dc55eb5a7 ""
  "c:/texlive/2018/texmf-dist/tex/latex/graphics-cfg/color.cfg" 1533175635 1213 620bba36b25224fa9b7e1ccb4ecb76fd ""
  "c:/texlive/2018/texmf-dist/tex/latex/graphics-cfg/graphics.cfg" 1533175635 1224 978390e9c2234eab29404bc21b268d1e ""
  "c:/texlive/2018/texmf-dist/tex/latex/graphics-def/pdftex.def" 1533175635 17334 520b9b85ad8a2a48eda3f643e27a5179 ""
  "c:/texlive/2018/texmf-dist/tex/latex/graphics/graphics.sty" 1533175633 15272 5a97061616e0c8b2aa79c6615ff769f4 ""
  "c:/texlive/2018/texmf-dist/tex/latex/graphics/graphicx.sty" 1533175633 9063 d0a305975932762117cd1f06a582f896 ""
  "c:/texlive/2018/texmf-dist/tex/latex/graphics/keyval.sty" 1533175633 2591 6404d0c7d28505fb38ce0d86c2e28ae7 ""
  "c:/texlive/2018/texmf-dist/tex/latex/graphics/trig.sty" 1533175634 3977 cb9221976ed8a183afad65b59aa8629a ""
  "c:/texlive/2018/texmf-dist/tex/latex/latexconfig/epstopdf-sys.cfg" 1533175988 678 4792914a8f45be57bb98413425e4c7af ""
  "c:/texlive/2018/texmf-dist/tex/latex/oberdiek/epstopdf-base.sty" 1533176515 12095 5337833c991d80788a43d3ce26bd1c46 ""
  "c:/texlive/2018/texmf-dist/tex/latex/oberdiek/grfext.sty" 1533176515 7075 2fe3d848bba95f139de11ded085e74aa ""
  "c:/texlive/2018/texmf-dist/tex/latex/oberdiek/kvoptions.sty" 1533176515 22417 1d9df1eb66848aa31b18a593099cf45c ""
  "c:/texlive/2018/texmf-dist/tex/latex/psnfss/ot1ptm.fd" 1533176766 961 15056f4a61917ceed3a44e4ac11fcc52 ""
  "c:/texlive/2018/texmf-dist/tex/latex/xcolor/xcolor.sty" 1533177753 55589 34128738f682d033422ca125f82e5d62 ""
  "c:/texlive/2018/texmf-dist/web2c/texmf.cnf" 1533175906 33362 cf75436e19743e94a92a6b1b9183c434 ""
  "c:/texlive/2018/texmf-var/fonts/map/pdftex/updmap/pdftex.map" 1533177890 2912949 8f7ee2183ff143e9b4d7090a42e31c2f ""
  "c:/texlive/2018/texmf-var/web2c/pdftex/pdflatex.fmt" 1533177952 4217228 4a70a0048782439c60f960e600c27683 ""
  "c:/texlive/2018/texmf.cnf" 1533177874 673 4ae7b2f49cee444c5343a45b5d0f169c ""
  "conference_041818.aux" 1533613559 1459 117e63dc0f38133dcbab208d092fcc62 ""
  "conference_041818.tex" 1533613557 9097 205b2651f2aad13a1dc0114090fd8a2a ""
  (generated)
  "conference_041818.pdf"
  "conference_041818.aux"
  "conference_041818.log"
