% Generated by IEEEtranS.bst, version: 1.14 (2015/08/26)
\begin{thebibliography}{10}
\providecommand{\url}[1]{#1}
\csname url@samestyle\endcsname
\providecommand{\newblock}{\relax}
\providecommand{\bibinfo}[2]{#2}
\providecommand{\BIBentrySTDinterwordspacing}{\spaceskip=0pt\relax}
\providecommand{\BIBentryALTinterwordstretchfactor}{4}
\providecommand{\BIBentryALTinterwordspacing}{\spaceskip=\fontdimen2\font plus
\BIBentryALTinterwordstretchfactor\fontdimen3\font minus
  \fontdimen4\font\relax}
\providecommand{\BIBforeignlanguage}[2]{{%
\expandafter\ifx\csname l@#1\endcsname\relax
\typeout{** WARNING: IEEEtranS.bst: No hyphenation pattern has been}%
\typeout{** loaded for the language `#1'. Using the pattern for}%
\typeout{** the default language instead.}%
\else
\language=\csname l@#1\endcsname
\fi
#2}}
\providecommand{\BIBdecl}{\relax}
\BIBdecl

\bibitem{syn}
\BIBentryALTinterwordspacing
``Tcp syn flood,'' Tech. Rep. [Online]. Available:
  \url{https://www.incapsula.com/ddos/attack-glossary/syn-flood.html}
\BIBentrySTDinterwordspacing

\bibitem{udp}
\BIBentryALTinterwordspacing
``Udp flood,'' Tech. Rep. [Online]. Available:
  \url{https://www.incapsula.com/ddos/attack-glossary/udp-flood.html}
\BIBentrySTDinterwordspacing

\bibitem{USC}
\BIBentryALTinterwordspacing
``Usc/isi ant datasets.'' [Online]. Available:
  \url{https://ant.isi.edu/datasets/all.html}
\BIBentrySTDinterwordspacing

\bibitem{digitalattackmap}
\BIBentryALTinterwordspacing
``What is a ddos attack?'' Tech. Rep., 2013. [Online]. Available:
  \url{https://www.digitalattackmap.com/understanding-ddos/}
\BIBentrySTDinterwordspacing

\bibitem{bitag}
\BIBentryALTinterwordspacing
``{Internet of Things (IoT) Security and Privacy Recommendations},'' Tech.
  Rep., 2016. [Online]. Available:
  \url{http://www.bitag.org/documents/BITAG_Report_-_Internet_of_Things_(IoT)_Security_and_Privacy_Recommendations.pdf}
\BIBentrySTDinterwordspacing

\bibitem{ConfusionMatrix}
\BIBentryALTinterwordspacing
``Confusion matrix,'' 2018. [Online]. Available:
  \url{https://en.wikipedia.org/wiki/Confusion_matrix}
\BIBentrySTDinterwordspacing

\bibitem{DoS}
\BIBentryALTinterwordspacing
``Denial-of-service attack,'' 2018. [Online]. Available:
  \url{https://en.wikipedia.org/wiki/Denial-of-service_attack}
\BIBentrySTDinterwordspacing

\bibitem{LOIC}
\BIBentryALTinterwordspacing
``Low orbit ion cannon,'' 2018. [Online]. Available:
  \url{https://en.wikipedia.org/wiki/Low_Orbit_Ion_Cannon}
\BIBentrySTDinterwordspacing

\bibitem{botnet}
\BIBentryALTinterwordspacing
``What is a botnet?'' Tech. Rep., 2018. [Online]. Available:
  \url{https://au.norton.com/internetsecurity-malware-what-is-a-botnet.html}
\BIBentrySTDinterwordspacing

\bibitem{securelist}
\BIBentryALTinterwordspacing
K.~I. Alexander~Khalimonenko, Oleg~Kupreev, ``Ddos attacks in q4 2017,'' Tech.
  Rep., 2018. [Online]. Available:
  \url{https://securelist.com/ddos-attacks-in-q4-2017/83729/}
\BIBentrySTDinterwordspacing

\bibitem{ppra}
\BIBentryALTinterwordspacing
A.~G. Bardas, L.~Zomlot, S.~C. Sundaramurthy, X.~Ou, S.~R. Rajagopalan, and
  M.~R. Eisenbarth, ``Classification of {UDP} traffic for ddos detection,'' in
  \emph{Presented as part of the 5th {USENIX} Workshop on Large-Scale Exploits
  and Emergent Threats}.\hskip 1em plus 0.5em minus 0.4em\relax San Jose, CA:
  {USENIX}, 2012. [Online]. Available:
  \url{https://www.usenix.org/conference/leet12/classification-udp-traffic-ddos-detection}
\BIBentrySTDinterwordspacing

\bibitem{wikiDecisionTree}
\BIBentryALTinterwordspacing
W.~contributors, ``Decision tree --- wikipedia, the free encyclopedia,'' 2018.
  [Online]. Available:
  \url{https://en.wikipedia.org/w/index.php?title=Decision_tree&oldid=867694712}
\BIBentrySTDinterwordspacing

\bibitem{f1}
\BIBentryALTinterwordspacing
------, ``F1 score --- wikipedia, the free encyclopedia,'' 2018. [Online].
  Available:
  \url{https://en.wikipedia.org/w/index.php?title=F1_score&oldid=861659585}
\BIBentrySTDinterwordspacing

\bibitem{wikiHOIC}
\BIBentryALTinterwordspacing
------, ``High orbit ion cannon --- wikipedia, the free encyclopedia,'' 2018.
  [Online]. Available:
  \url{https://en.wikipedia.org/w/index.php?title=High_Orbit_Ion_Cannon&oldid=866157008}
\BIBentrySTDinterwordspacing

\bibitem{QUIC}
\BIBentryALTinterwordspacing
------, ``Quic --- wikipedia, the free encyclopedia,'' 2018. [Online].
  Available:
  \url{https://en.wikipedia.org/w/index.php?title=QUIC&oldid=862492827}
\BIBentrySTDinterwordspacing

\bibitem{wikiUDPU}
\BIBentryALTinterwordspacing
------, ``Udp unicorn --- wikipedia, the free encyclopedia,'' 2018. [Online].
  Available:
  \url{https://en.wikipedia.org/w/index.php?title=UDP_Unicorn&oldid=855011298}
\BIBentrySTDinterwordspacing

\bibitem{doshi}
\BIBentryALTinterwordspacing
R.~Doshi, N.~Apthorpe, and N.~Feamster, ``Machine learning ddos detection for
  consumer internet of things devices,'' \emph{CoRR}, vol. abs/1804-04159,
  2018. [Online]. Available: \url{http://arxiv.org/abs/1804.04159}
\BIBentrySTDinterwordspacing

\bibitem{mirai}
\BIBentryALTinterwordspacing
J.~Fruhlinger, ``The mirai botnet explained: How teen scammers and cctv cameras
  almost brought down the internet,'' Tech. Rep., 2018. [Online]. Available:
  \url{https://www.csoonline.com/article/3258748/security/the-mirai-botnet-explained-how-teen-scammers-and-cctv-cameras-almost-brought-down-the-internet.html}
\BIBentrySTDinterwordspacing

\bibitem{precisionRecall}
\BIBentryALTinterwordspacing
\emph{Classification: Precision and Recall}, Google, 2018. [Online]. Available:
  \url{https://developers.google.com/machine-learning/crash-course/classification/precision-and-recall}
\BIBentrySTDinterwordspacing

\bibitem{handshake}
\BIBentryALTinterwordspacing
``Tcp 3-way handshake (syn,syn-ack,ack),'' InetDaemon, 2018. [Online].
  Available:
  \url{https://www.inetdaemon.com/tutorials/internet/tcp/3-way_handshake.shtml}
\BIBentrySTDinterwordspacing

\bibitem{scikit}
\BIBentryALTinterwordspacing
\emph{scikit-learn Documentation}, INRIA. [Online]. Available:
  \url{http://scikit-learn.org/stable/tutorial/basic/tutorial.html}
\BIBentrySTDinterwordspacing

\bibitem{jupyter}
\BIBentryALTinterwordspacing
\emph{Jupyter Documentation}, Jupyter. [Online]. Available:
  \url{https://jupyter.readthedocs.io/en/latest/}
\BIBentrySTDinterwordspacing

\bibitem{pyshark}
\BIBentryALTinterwordspacing
KimiNewt, \emph{PyShark - Python packet parser using wireshark's tshark}.
  [Online]. Available: \url{http://kiminewt.github.io/pyshark/}
\BIBentrySTDinterwordspacing

\bibitem{tesla}
\BIBentryALTinterwordspacing
F.~Lambert, ``Tesla is introducing new paid ‘premium connectivity’ package
  to support in-car internet features of growing fleet,'' Tech. Rep., 2018.
  [Online]. Available:
  \url{https://electrek.co/2018/06/23/tesla-new-paid-premium-connectivity-package-in-car-internet-features/}
\BIBentrySTDinterwordspacing

\bibitem{lightbulbIOT}
\BIBentryALTinterwordspacing
P.~Lamkin, ``The best smart light bulbs: Alexa, google assistant and homekit
  powered lighting,'' Tech. Rep., 2018. [Online]. Available:
  \url{https://www.the-ambient.com/reviews/the-best-smart-lights-bulbs-platforms-209}
\BIBentrySTDinterwordspacing

\bibitem{l2}
\BIBentryALTinterwordspacing
A.~Nagpal, ``L1 and l2 regularization methods,'' Tech. Rep., 2017. [Online].
  Available:
  \url{https://towardsdatascience.com/l1-and-l2-regularization-methods-ce25e7fc831c}
\BIBentrySTDinterwordspacing

\bibitem{securityIOT}
\BIBentryALTinterwordspacing
C.~Pastorino, ``How to start analyzing the security of your iot devices,''
  Tech. Rep., 2018. [Online]. Available:
  \url{https://www.welivesecurity.com/2018/03/02/start-analyzing-security-iot-devices/}
\BIBentrySTDinterwordspacing

\bibitem{IoTAgenda}
\BIBentryALTinterwordspacing
M.~Rouse, ``{Definition: Internet of Things (IoT)},'' Tech. Rep., 2018.
  [Online]. Available:
  \url{https://internetofthingsagenda.techtarget.com/definition/Internet-of-Things-IoT}
\BIBentrySTDinterwordspacing

\bibitem{ada}
\BIBentryALTinterwordspacing
\emph{AdaBoostClassifier}, scikit learn, 2018. [Online]. Available:
  \url{https://scikit-learn.org/stable/modules/generated/sklearn.ensemble.AdaBoostClassifier.html}
\BIBentrySTDinterwordspacing

\bibitem{decisionTree}
\BIBentryALTinterwordspacing
\emph{DecisionTreeClassifier}, scikit learn, 2018. [Online]. Available:
  \url{https://scikit-learn.org/stable/modules/generated/sklearn.tree.DecisionTreeClassifier.html#sklearn.tree.DecisionTreeClassifier}
\BIBentrySTDinterwordspacing

\bibitem{GNB}
\BIBentryALTinterwordspacing
\emph{GaussianNB}, scikit learn, 2018. [Online]. Available:
  \url{https://scikit-learn.org/stable/modules/generated/sklearn.naive_bayes.GaussianNB.html}
\BIBentrySTDinterwordspacing

\bibitem{kNNsklearn}
\BIBentryALTinterwordspacing
\emph{KNeighborsClassifier}, scikit learn, 2018. [Online]. Available:
  \url{https://scikit-learn.org/stable/modules/generated/sklearn.neighbors.KNeighborsClassifier.html}
\BIBentrySTDinterwordspacing

\bibitem{linearSVM}
\BIBentryALTinterwordspacing
\emph{LinearSVC}, scikit learn, 2018. [Online]. Available:
  \url{https://scikit-learn.org/stable/modules/generated/sklearn.svm.LinearSVC.html}
\BIBentrySTDinterwordspacing

\bibitem{mlp}
\BIBentryALTinterwordspacing
\emph{Neural network models (supervised)}, scikit learn, 2018. [Online].
  Available:
  \url{https://scikit-learn.org/stable/modules/neural_networks_supervised.html}
\BIBentrySTDinterwordspacing

\bibitem{randomForest}
\BIBentryALTinterwordspacing
\emph{RandomForestClassifier}, scikit learn, 2018. [Online]. Available:
  \url{https://scikit-learn.org/stable/modules/generated/sklearn.ensemble.RandomForestClassifier.html}
\BIBentrySTDinterwordspacing

\bibitem{rbfSVM}
\BIBentryALTinterwordspacing
\emph{RBF SVM parameters}, scikit learn, 2018. [Online]. Available:
  \url{https://scikit-learn.org/stable/auto_examples/svm/plot_rbf_parameters.html}
\BIBentrySTDinterwordspacing

\bibitem{gartner}
\BIBentryALTinterwordspacing
R.~van~der Meulen, ``{Gartner Says 8.4 Billion Connected "Things" Will Be in
  Use in 2017, Up 31 Percent From 2016},'' Tech. Rep., 2017. [Online].
  Available:
  \url{https://www.gartner.com/en/newsroom/press-releases/2017-02-07-gartner-says-8-billion-connected-things-will-be-in-use-in-2017-up-31-percent-from-2016}
\BIBentrySTDinterwordspacing

\bibitem{windowing}
R.~Vijayasarathy, S.~V. Raghavan, and B.~Ravindran, ``A system approach to
  network modeling for ddos detection using a naìve bayesian classifier,'' in
  \emph{2011 Third International Conference on Communication Systems and
  Networks (COMSNETS 2011)}, Jan 2011, pp. 1--10.

\bibitem{wireshark}
\BIBentryALTinterwordspacing
\emph{Wireshark User’s Guide}, Wireshark, version 2.9.0. [Online]. Available:
  \url{https://www.wireshark.org/docs/wsug_html_chunked/}
\BIBentrySTDinterwordspacing

\end{thebibliography}
